%YAML 1.1
%TAG !u! tag:unity3d.com,2011:
--- !u!74 &7400000
AnimationClip:
  m_ObjectHideFlags: 0
  m_CorrespondingSourceObject: {fileID: 0}
  m_PrefabInstance: {fileID: 0}
  m_PrefabAsset: {fileID: 0}
  m_Name: Run
  serializedVersion: 6
  m_Legacy: 0
  m_Compressed: 0
  m_UseHighQualityCurve: 1
  m_RotationCurves: []
  m_CompressedRotationCurves: []
  m_EulerCurves: []
  m_PositionCurves: []
  m_ScaleCurves: []
  m_FloatCurves: []
  m_PPtrCurves:
  - curve:
    - time: 0
      value: {fileID: 21300000, guid: 3568e51c178eb1c41b652c1b2a6c205c, type: 3}
    - time: 0.083333336
      value: {fileID: 21300000, guid: 347cf84a0b315d5498362ed64b3286e7, type: 3}
    - time: 0.16666667
      value: {fileID: 21300000, guid: 6718a819c2a92c24d897319c6d4abf0e, type: 3}
    - time: 0.25
      value: {fileID: 21300000, guid: 881d3f05362c8ff42813a57bb7429294, type: 3}
    - time: 0.33333334
      value: {fileID: 21300000, guid: 76cf8a474069d034092329ecb2dca538, type: 3}
    - time: 0.41666666
      value: {fileID: 21300000, guid: b28094d0ea303634ab51b3a6d0ed0d2a, type: 3}
    - time: 0.5
      value: {fileID: 21300000, guid: 92acbe059613f4d489d0b273fe8d70e4, type: 3}
    - time: 0.5833333
      value: {fileID: 21300000, guid: 2f575663fd4092746a7004a0360263f3, type: 3}
    - time: 0.6666667
      value: {fileID: 21300000, guid: ff1510b42a35e7b49aa15212d11d1de5, type: 3}
    - time: 0.75
      value: {fileID: 21300000, guid: 0406e1870b182844da7a9d618beb3102, type: 3}
    attribute: m_Sprite
    path: 
    classID: 212
    script: {fileID: 0}
  m_SampleRate: 60
  m_WrapMode: 0
  m_Bounds:
    m_Center: {x: 0, y: 0, z: 0}
    m_Extent: {x: 0, y: 0, z: 0}
  m_ClipBindingConstant:
    genericBindings:
    - serializedVersion: 2
      path: 0
      attribute: 0
      script: {fileID: 0}
      typeID: 212
      customType: 23
      isPPtrCurve: 1
    pptrCurveMapping:
    - {fileID: 21300000, guid: 3568e51c178eb1c41b652c1b2a6c205c, type: 3}
    - {fileID: 21300000, guid: 347cf84a0b315d5498362ed64b3286e7, type: 3}
    - {fileID: 21300000, guid: 6718a819c2a92c24d897319c6d4abf0e, type: 3}
    - {fileID: 21300000, guid: 881d3f05362c8ff42813a57bb7429294, type: 3}
    - {fileID: 21300000, guid: 76cf8a474069d034092329ecb2dca538, type: 3}
    - {fileID: 21300000, guid: b28094d0ea303634ab51b3a6d0ed0d2a, type: 3}
    - {fileID: 21300000, guid: 92acbe059613f4d489d0b273fe8d70e4, type: 3}
    - {fileID: 21300000, guid: 2f575663fd4092746a7004a0360263f3, type: 3}
    - {fileID: 21300000, guid: ff1510b42a35e7b49aa15212d11d1de5, type: 3}
    - {fileID: 21300000, guid: 0406e1870b182844da7a9d618beb3102, type: 3}
  m_AnimationClipSettings:
    serializedVersion: 2
    m_AdditiveReferencePoseClip: {fileID: 0}
    m_AdditiveReferencePoseTime: 0
    m_StartTime: 0
    m_StopTime: 0.76666665
    m_OrientationOffsetY: 0
    m_Level: 0
    m_CycleOffset: 0
    m_HasAdditiveReferencePose: 0
    m_LoopTime: 1
    m_LoopBlend: 0
    m_LoopBlendOrientation: 0
    m_LoopBlendPositionY: 0
    m_LoopBlendPositionXZ: 0
    m_KeepOriginalOrientation: 0
    m_KeepOriginalPositionY: 1
    m_KeepOriginalPositionXZ: 0
    m_HeightFromFeet: 0
    m_Mirror: 0
  m_EditorCurves: []
  m_EulerEditorCurves: []
  m_HasGenericRootTransform: 0
  m_HasMotionFloatCurves: 0
  m_Events: []
