%YAML 1.1
%TAG !u! tag:unity3d.com,2011:
--- !u!78 &1
TagManager:
  serializedVersion: 2
  tags:
  - Ground
  layers:
  - Default
  - TransparentFX
  - Ignore Raycast
  - 
  - Water
  - UI
  - Ground
  - 
  - 
  - 
  - 
  - 
  - 
  - 
  - 
  - 
  - 
  - 
  - 
  - 
  - 
  - 
  - 
  - 
  - 
  - 
  - 
  - 
  - 
  - 
  - 
  - 
  m_SortingLayers:
  - name: Default
    uniqueID: 0
    locked: 0
  - name: Background
    uniqueID: 179919105
    locked: 0
  - name: Moon
    uniqueID: 717927739
    locked: 0
  - name: Trees
    uniqueID: 1156038643
    locked: 0
  - name: Ground
    uniqueID: 3535624541
    locked: 0
  - name: Player
    uniqueID: 133082691
    locked: 0
  - name: Fog
    uniqueID: 4118071757
    locked: 0
